<?xml version="1.0" encoding="UTF-8" standalone="no"?>
<svg
   xmlns:dc="http://purl.org/dc/elements/1.1/"
   xmlns:cc="http://creativecommons.org/ns#"
   xmlns:rdf="http://www.w3.org/1999/02/22-rdf-syntax-ns#"
   xmlns:svg="http://www.w3.org/2000/svg"
   xmlns="http://www.w3.org/2000/svg"
   xmlns:sodipodi="http://sodipodi.sourceforge.net/DTD/sodipodi-0.dtd"
   xmlns:inkscape="http://www.inkscape.org/namespaces/inkscape"
   sodipodi:docname="shapes-f11.svg"
   inkscape:version="1.0beta1 (a4ee55bc41, 2019-11-15)"
   sodipodi:version="0.32"
   id="svg4254"
   viewBox="0 0 300 126"
   height="126"
   width="300"
   version="1.1">
  <defs
     id="defs3" />
  <sodipodi:namedview
     inkscape:window-maximized="0"
     inkscape:window-y="27"
     inkscape:window-x="54"
     inkscape:window-height="1053"
     inkscape:window-width="1866"
     inkscape:guide-bbox="true"
     showguides="true"
     units="px"
     showgrid="false"
     inkscape:document-rotation="0"
     inkscape:current-layer="layer1"
     inkscape:document-units="px"
     inkscape:cy="75"
     inkscape:cx="160"
     inkscape:zoom="1.4"
     inkscape:pageshadow="2"
     inkscape:pageopacity="0.0"
     borderopacity="1.0"
     bordercolor="#666666"
     pagecolor="#ffffff"
     id="base"
     inkscape:lockguides="true" />
  <metadata
     id="metadata4">
    <rdf:RDF>
      <cc:Work
         rdf:about="">
        <dc:format>image/svg+xml</dc:format>
        <dc:type
           rdf:resource="http://purl.org/dc/dcmitype/StillImage" />
        <dc:title />
      </cc:Work>
    </rdf:RDF>
  </metadata>
  <g
     id="layer1"
     inkscape:groupmode="layer"
     inkscape:label="Layer 1">
    <g
       transform="translate(-4.0509294,-3203.903)"
       id="g4447">
      <path
         sodipodi:nodetypes="cc"
         id="path3194"
         d="M 78.137482,3274.6928 30.979407,3247.7189"
         style="fill:none;fill-opacity:0.75;fill-rule:evenodd;stroke:#d3d3d3;stroke-width:0.25pt;stroke-linecap:butt;stroke-linejoin:miter;stroke-opacity:1"
         inkscape:connector-curvature="0" />
      <path
         sodipodi:nodetypes="cc"
         id="path3195"
         d="M 82.405274,3271.7422 41.756105,3231.9579"
         style="fill:none;fill-opacity:0.75;fill-rule:evenodd;stroke:#d3d3d3;stroke-width:0.25pt;stroke-linecap:butt;stroke-linejoin:miter;stroke-opacity:1"
         inkscape:connector-curvature="0" />
      <path
         sodipodi:open="true"
         transform="matrix(1.157706,0,0,1.157706,21.52208,-466.2171)"
         sodipodi:end="3.9269908"
         sodipodi:start="3.6651914"
         d="m 11.4409,3210.0163 a 59.578407,58.560177 0 0 1 9.468119,-12.1282"
         sodipodi:ry="58.560177"
         sodipodi:rx="59.578407"
         sodipodi:cy="3239.2964"
         sodipodi:cx="63.037315"
         id="path3196"
         style="color:#000000;fill:none;fill-opacity:0.996656;fill-rule:evenodd;stroke:#d3d3d3;stroke-width:0.647833;stroke-linecap:butt;stroke-linejoin:miter;stroke-miterlimit:4;stroke-dashoffset:0;stroke-opacity:1;marker:none;marker-start:none;marker-mid:none;marker-end:none"
         sodipodi:type="arc"
         sodipodi:arc-type="arc" />
      <text
         transform="matrix(0.70939,0,0,0.70939,10.28585,1617.123)"
         id="text3818"
         y="2289.2708"
         x="30.19973"
         style="font-style:normal;font-variant:normal;font-weight:normal;font-stretch:normal;line-height:0%;font-family:'Liberation Sans',Arial,sans-serif;writing-mode:lr-tb;text-anchor:start;fill:#d3d3d3;fill-opacity:1;stroke:none;stroke-width:1pt;stroke-linecap:butt;stroke-linejoin:miter;stroke-opacity:1"
         xml:space="preserve"><tspan
           dy="0 0"
           dx="0 -0.23659326"
           y="2289.2708"
           x="30.19973"
           id="tspan3823"
           sodipodi:role="line"
           style="font-size:8.4px;line-height:1.2">15</tspan></text>
      <circle
         transform="matrix(0.882077,0,0,0.882077,4.519106,381.4818)"
         id="path3825"
         style="color:#000000;fill:none;fill-opacity:0.75;fill-rule:evenodd;stroke:#d3d3d3;stroke-width:0.48604;stroke-linecap:butt;stroke-linejoin:miter;stroke-miterlimit:4;stroke-dashoffset:0;stroke-opacity:1;marker:none;marker-start:none;marker-mid:none;marker-end:none"
         cx="40.483158"
         cy="3237.9563"
         r="0.89163345" />
    </g>
    <text
       id="text3883"
       y="6"
       x="57.387905"
       style="font-style:normal;font-variant:normal;font-weight:normal;font-stretch:normal;line-height:0%;font-family:'Liberation Sans',Arial,sans-serif;writing-mode:lr-tb;text-align:center;text-anchor:middle;fill:#000000;fill-opacity:1;stroke:none;stroke-width:1pt;stroke-linecap:butt;stroke-linejoin:miter;stroke-opacity:1"
       xml:space="preserve"><tspan
         y="6"
         x="75"
         id="tspan3884"
         sodipodi:role="line"
         style="font-size:6px;line-height:1.1;text-align:center;text-anchor:middle">Segments</tspan></text>
    <text
       id="text3888"
       y="6"
       x="220.38005"
       style="font-style:normal;font-variant:normal;font-weight:normal;font-stretch:normal;line-height:0%;font-family:'Liberation Sans',Arial,sans-serif;writing-mode:lr-tb;text-align:center;text-anchor:middle;fill:#000000;fill-opacity:1;stroke:none;stroke-width:1pt;stroke-linecap:butt;stroke-linejoin:miter;stroke-opacity:1"
       xml:space="preserve"><tspan
         y="6"
         x="225"
         id="tspan3891"
         sodipodi:role="line"
         style="font-size:6px;line-height:1.1;text-align:center;text-anchor:middle">Arcs</tspan></text>
    <path
       sodipodi:end="5.4977871"
       sodipodi:start="2.2993372"
       d="M 70.00854,88.102002 A 30.710485,10.852578 0 0 1 60.511061,77.594804 30.710485,10.852578 0 0 1 81.945813,69.576716 30.710485,10.852578 0 0 1 112.17061,72.330455 L 90.455017,80.004387 Z"
       sodipodi:ry="10.852578"
       sodipodi:rx="30.710485"
       sodipodi:cy="80.004387"
       sodipodi:cx="90.455017"
       id="path3234"
       style="color:#000000;fill:none;fill-opacity:0.996656;fill-rule:evenodd;stroke:#000000;stroke-width:0.75;stroke-linecap:butt;stroke-linejoin:miter;stroke-miterlimit:4;stroke-dashoffset:0;stroke-opacity:1;marker:none;marker-start:none;marker-mid:none;marker-end:none"
       sodipodi:type="arc"
       sodipodi:arc-type="slice" />
    <path
       sodipodi:end="5.4977871"
       sodipodi:start="2.2993372"
       d="M 70.00854,103.10719 A 30.710485,30.962814 0 0 1 60.511061,73.129756 30.710485,30.962814 0 0 1 81.945813,50.253848 30.710485,30.962814 0 0 1 112.17061,58.11037 L 90.455017,80.004387 Z"
       sodipodi:ry="30.962814"
       sodipodi:rx="30.710485"
       sodipodi:cy="80.004387"
       sodipodi:cx="90.455017"
       id="path3856"
       style="color:#000000;fill:none;fill-opacity:0.996656;fill-rule:evenodd;stroke:#000000;stroke-width:0.75;stroke-linecap:butt;stroke-linejoin:miter;stroke-miterlimit:4;stroke-dashoffset:0;stroke-opacity:1;marker:none;marker-start:none;marker-mid:none;marker-end:none"
       sodipodi:type="arc"
       sodipodi:arc-type="slice" />
    <path
       sodipodi:end="5.4977871"
       sodipodi:start="2.2993372"
       d="M 70.00854,123.69887 A 30.710485,58.560177 0 0 1 60.511061,67.002353 30.710485,58.560177 0 0 1 81.945813,23.736994 30.710485,58.560177 0 0 1 112.17061,38.596087 l -21.715593,41.4083 z"
       sodipodi:ry="58.560177"
       sodipodi:rx="30.710485"
       sodipodi:cy="80.004387"
       sodipodi:cx="90.455017"
       id="path3857"
       style="color:#000000;fill:none;fill-opacity:0.996656;fill-rule:evenodd;stroke:#000000;stroke-width:0.75;stroke-linecap:butt;stroke-linejoin:miter;stroke-miterlimit:4;stroke-dashoffset:0;stroke-opacity:1;marker:none;marker-start:none;marker-mid:none;marker-end:none"
       sodipodi:type="arc"
       sodipodi:arc-type="slice" />
    <path
       sodipodi:end="3.1554016"
       sodipodi:start="2.2993372"
       d="M 50.788808,123.69887 A 59.578407,58.560177 0 0 1 30.88229,79.195758 l 59.572727,0.808629 z"
       sodipodi:ry="58.560177"
       sodipodi:rx="59.578407"
       sodipodi:cy="80.004387"
       sodipodi:cx="90.455017"
       id="path3858"
       style="color:#000000;fill:none;fill-opacity:0.996656;fill-rule:evenodd;stroke:#000000;stroke-width:0.75;stroke-linecap:butt;stroke-linejoin:miter;stroke-miterlimit:4;stroke-dashoffset:0;stroke-opacity:1;marker:none;marker-start:none;marker-mid:none;marker-end:none"
       sodipodi:type="arc"
       sodipodi:arc-type="slice" />
    <path
       sodipodi:end="3.6651914"
       sodipodi:start="2.2993372"
       d="M 50.788808,123.69887 A 59.578407,58.560177 0 0 1 38.858602,50.7243 l 51.596415,29.280087 z"
       sodipodi:ry="58.560177"
       sodipodi:rx="59.578407"
       sodipodi:cy="80.004387"
       sodipodi:cx="90.455017"
       id="path3859"
       style="color:#000000;fill:none;fill-opacity:0.996656;fill-rule:evenodd;stroke:#000000;stroke-width:0.75;stroke-linecap:butt;stroke-linejoin:miter;stroke-miterlimit:4;stroke-dashoffset:0;stroke-opacity:1;marker:none;marker-start:none;marker-mid:none;marker-end:none"
       sodipodi:type="arc"
       sodipodi:arc-type="slice" />
    <path
       sodipodi:end="3.9269908"
       sodipodi:start="2.2993372"
       d="M 50.788808,123.69887 A 59.578407,58.560177 0 0 1 30.900683,81.66895 59.578407,58.560177 0 0 1 48.326721,38.596089 l 42.128296,41.408298 z"
       sodipodi:ry="58.560177"
       sodipodi:rx="59.578407"
       sodipodi:cy="80.004387"
       sodipodi:cx="90.455017"
       id="path3860"
       style="color:#000000;fill:none;fill-opacity:0.996656;fill-rule:evenodd;stroke:#000000;stroke-width:0.75;stroke-linecap:butt;stroke-linejoin:miter;stroke-miterlimit:4;stroke-dashoffset:0;stroke-opacity:1;marker:none;marker-start:none;marker-mid:none;marker-end:none"
       sodipodi:type="arc"
       sodipodi:arc-type="slice" />
    <path
       sodipodi:end="4.1887902"
       sodipodi:start="2.2993372"
       d="M 50.788808,123.69887 A 59.578407,58.560177 0 0 1 31.189132,74.01416 59.578407,58.560177 0 0 1 60.665813,29.289786 l 29.789204,50.714601 z"
       sodipodi:ry="58.560177"
       sodipodi:rx="59.578407"
       sodipodi:cy="80.004387"
       sodipodi:cx="90.455017"
       id="path3861"
       style="color:#000000;fill:none;fill-opacity:0.996656;fill-rule:evenodd;stroke:#000000;stroke-width:0.75;stroke-linecap:butt;stroke-linejoin:miter;stroke-miterlimit:4;stroke-dashoffset:0;stroke-opacity:1;marker:none;marker-start:none;marker-mid:none;marker-end:none"
       sodipodi:type="arc"
       sodipodi:arc-type="slice" />
    <path
       sodipodi:end="4.1887902"
       sodipodi:start="2.2993372"
       d="M 80.374237,123.69887 A 15.141271,58.560177 0 0 1 75.393171,74.01416 15.141271,58.560177 0 0 1 82.884382,29.289786 l 7.570635,50.714601 z"
       sodipodi:ry="58.560177"
       sodipodi:rx="15.141271"
       sodipodi:cy="80.004387"
       sodipodi:cx="90.455017"
       id="path3862"
       style="color:#000000;fill:none;fill-opacity:0.996656;fill-rule:evenodd;stroke:#000000;stroke-width:0.75;stroke-linecap:butt;stroke-linejoin:miter;stroke-miterlimit:4;stroke-dashoffset:0;stroke-opacity:1;marker:none;marker-start:none;marker-mid:none;marker-end:none"
       sodipodi:type="arc"
       sodipodi:arc-type="slice" />
    <path
       sodipodi:end="5.4977871"
       sodipodi:start="2.2993372"
       d="M 40.423112,88.102002 A 75.147621,10.852578 0 0 1 17.183069,77.594804 75.147621,10.852578 0 0 1 69.633254,69.576716 75.147621,10.852578 0 0 1 143.59241,72.330455 l -53.137393,7.673932 z"
       sodipodi:ry="10.852578"
       sodipodi:rx="75.147621"
       sodipodi:cy="80.004387"
       sodipodi:cx="90.455017"
       id="path3864"
       style="color:#000000;fill:none;fill-opacity:0.996656;fill-rule:evenodd;stroke:#000000;stroke-width:0.75;stroke-linecap:butt;stroke-linejoin:miter;stroke-miterlimit:4;stroke-dashoffset:0;stroke-opacity:1;marker:none;marker-start:none;marker-mid:none;marker-end:none"
       sodipodi:type="arc"
       sodipodi:arc-type="slice" />
    <path
       sodipodi:open="true"
       sodipodi:end="5.4977871"
       sodipodi:start="2.2993372"
       d="m 211.4289,88.102002 a 30.710485,10.852578 0 0 1 -9.49747,-10.507198 30.710485,10.852578 0 0 1 21.43475,-8.018088 30.710485,10.852578 0 0 1 30.22479,2.753739"
       sodipodi:ry="10.852578"
       sodipodi:rx="30.710485"
       sodipodi:cy="80.004387"
       sodipodi:cx="231.87538"
       id="path3865"
       style="color:#000000;fill:none;fill-opacity:0.996656;fill-rule:evenodd;stroke:#000000;stroke-width:0.75;stroke-linecap:butt;stroke-linejoin:miter;stroke-miterlimit:4;stroke-dashoffset:0;stroke-opacity:1;marker:none;marker-start:none;marker-mid:none;marker-end:none"
       sodipodi:type="arc"
       sodipodi:arc-type="arc" />
    <path
       sodipodi:open="true"
       sodipodi:end="5.4977871"
       sodipodi:start="2.2993372"
       d="m 211.4289,103.10719 a 30.710485,30.962814 0 0 1 -9.49747,-29.977434 30.710485,30.962814 0 0 1 21.43475,-22.875908 30.710485,30.962814 0 0 1 30.22479,7.856522"
       sodipodi:ry="30.962814"
       sodipodi:rx="30.710485"
       sodipodi:cy="80.004387"
       sodipodi:cx="231.87538"
       id="path3866"
       style="color:#000000;fill:none;fill-opacity:0.996656;fill-rule:evenodd;stroke:#000000;stroke-width:0.75;stroke-linecap:butt;stroke-linejoin:miter;stroke-miterlimit:4;stroke-dashoffset:0;stroke-opacity:1;marker:none;marker-start:none;marker-mid:none;marker-end:none"
       sodipodi:type="arc"
       sodipodi:arc-type="arc" />
    <path
       sodipodi:open="true"
       sodipodi:end="5.4977871"
       sodipodi:start="2.2993372"
       d="m 211.4289,123.69887 a 30.710485,58.560177 0 0 1 -9.49747,-56.696517 30.710485,58.560177 0 0 1 21.43475,-43.265359 30.710485,58.560177 0 0 1 30.22479,14.859093"
       sodipodi:ry="58.560177"
       sodipodi:rx="30.710485"
       sodipodi:cy="80.004387"
       sodipodi:cx="231.87538"
       id="path3867"
       style="color:#000000;fill:none;fill-opacity:0.996656;fill-rule:evenodd;stroke:#000000;stroke-width:0.75;stroke-linecap:butt;stroke-linejoin:miter;stroke-miterlimit:4;stroke-dashoffset:0;stroke-opacity:1;marker:none;marker-start:none;marker-mid:none;marker-end:none"
       sodipodi:type="arc"
       sodipodi:arc-type="arc" />
    <path
       sodipodi:open="true"
       sodipodi:end="3.1554016"
       sodipodi:start="2.2993372"
       d="M 192.20917,123.69887 A 59.578407,58.560177 0 0 1 172.30265,79.195758"
       sodipodi:ry="58.560177"
       sodipodi:rx="59.578407"
       sodipodi:cy="80.004387"
       sodipodi:cx="231.87538"
       id="path3868"
       style="color:#000000;fill:none;fill-opacity:0.996656;fill-rule:evenodd;stroke:#000000;stroke-width:0.75;stroke-linecap:butt;stroke-linejoin:miter;stroke-miterlimit:4;stroke-dashoffset:0;stroke-opacity:1;marker:none;marker-start:none;marker-mid:none;marker-end:none"
       sodipodi:type="arc"
       sodipodi:arc-type="arc" />
    <path
       sodipodi:open="true"
       sodipodi:end="3.6651914"
       sodipodi:start="2.2993372"
       d="M 192.20917,123.69887 A 59.578407,58.560177 0 0 1 180.27897,50.7243"
       sodipodi:ry="58.560177"
       sodipodi:rx="59.578407"
       sodipodi:cy="80.004387"
       sodipodi:cx="231.87538"
       id="path3869"
       style="color:#000000;fill:none;fill-opacity:0.996656;fill-rule:evenodd;stroke:#000000;stroke-width:0.75;stroke-linecap:butt;stroke-linejoin:miter;stroke-miterlimit:4;stroke-dashoffset:0;stroke-opacity:1;marker:none;marker-start:none;marker-mid:none;marker-end:none"
       sodipodi:type="arc"
       sodipodi:arc-type="arc" />
    <path
       sodipodi:open="true"
       sodipodi:end="3.9269908"
       sodipodi:start="2.2993372"
       d="M 192.20917,123.69887 A 59.578407,58.560177 0 0 1 172.32105,81.66895 59.578407,58.560177 0 0 1 189.74708,38.596089"
       sodipodi:ry="58.560177"
       sodipodi:rx="59.578407"
       sodipodi:cy="80.004387"
       sodipodi:cx="231.87538"
       id="path3870"
       style="color:#000000;fill:none;fill-opacity:0.996656;fill-rule:evenodd;stroke:#000000;stroke-width:0.75;stroke-linecap:butt;stroke-linejoin:miter;stroke-miterlimit:4;stroke-dashoffset:0;stroke-opacity:1;marker:none;marker-start:none;marker-mid:none;marker-end:none"
       sodipodi:type="arc"
       sodipodi:arc-type="arc" />
    <path
       sodipodi:open="true"
       sodipodi:end="4.1887902"
       sodipodi:start="2.2993372"
       d="M 192.20917,123.69887 A 59.578407,58.560177 0 0 1 172.6095,74.01416 59.578407,58.560177 0 0 1 202.08618,29.289786"
       sodipodi:ry="58.560177"
       sodipodi:rx="59.578407"
       sodipodi:cy="80.004387"
       sodipodi:cx="231.87538"
       id="path3871"
       style="color:#000000;fill:none;fill-opacity:0.996656;fill-rule:evenodd;stroke:#000000;stroke-width:0.75;stroke-linecap:butt;stroke-linejoin:miter;stroke-miterlimit:4;stroke-dashoffset:0;stroke-opacity:1;marker:none;marker-start:none;marker-mid:none;marker-end:none"
       sodipodi:type="arc"
       sodipodi:arc-type="arc" />
    <path
       sodipodi:open="true"
       sodipodi:end="4.1887902"
       sodipodi:start="2.2993372"
       d="m 221.7946,123.69887 a 15.141271,58.560177 0 0 1 -4.98106,-49.68471 15.141271,58.560177 0 0 1 7.49121,-44.724374"
       sodipodi:ry="58.560177"
       sodipodi:rx="15.141271"
       sodipodi:cy="80.004387"
       sodipodi:cx="231.87538"
       id="path3872"
       style="color:#000000;fill:none;fill-opacity:0.996656;fill-rule:evenodd;stroke:#000000;stroke-width:0.75;stroke-linecap:butt;stroke-linejoin:miter;stroke-miterlimit:4;stroke-dashoffset:0;stroke-opacity:1;marker:none;marker-start:none;marker-mid:none;marker-end:none"
       sodipodi:type="arc"
       sodipodi:arc-type="arc" />
    <path
       sodipodi:open="true"
       sodipodi:end="5.4977871"
       sodipodi:start="2.2993372"
       d="m 181.84348,88.102002 a 75.147621,10.852578 0 0 1 -23.24005,-10.507198 75.147621,10.852578 0 0 1 52.45019,-8.018088 75.147621,10.852578 0 0 1 73.95915,2.753739"
       sodipodi:ry="10.852578"
       sodipodi:rx="75.147621"
       sodipodi:cy="80.004387"
       sodipodi:cx="231.87538"
       id="path3873"
       style="color:#000000;fill:none;fill-opacity:0.996656;fill-rule:evenodd;stroke:#000000;stroke-width:0.75;stroke-linecap:butt;stroke-linejoin:miter;stroke-miterlimit:4;stroke-dashoffset:0;stroke-opacity:1;marker:none;marker-start:none;marker-mid:none;marker-end:none"
       sodipodi:type="arc"
       sodipodi:arc-type="arc" />
    <path
       sodipodi:end="3.403392"
       sodipodi:start="2.2993372"
       d="M 50.788808,123.69887 A 59.578407,58.560177 0 0 1 32.906694,64.8479 l 57.548323,15.156487 z"
       sodipodi:ry="58.560177"
       sodipodi:rx="59.578407"
       sodipodi:cy="80.004387"
       sodipodi:cx="90.455017"
       id="path3925"
       style="color:#000000;fill:none;fill-opacity:0.996656;fill-rule:evenodd;stroke:#000000;stroke-width:0.75;stroke-linecap:butt;stroke-linejoin:miter;stroke-miterlimit:4;stroke-dashoffset:0;stroke-opacity:1;marker:none;marker-start:none;marker-mid:none;marker-end:none"
       sodipodi:type="arc"
       sodipodi:arc-type="slice" />
  </g>
</svg>
