<?xml version="1.0" encoding="UTF-8" standalone="no"?>
<svg
   xmlns:dc="http://purl.org/dc/elements/1.1/"
   xmlns:cc="http://creativecommons.org/ns#"
   xmlns:rdf="http://www.w3.org/1999/02/22-rdf-syntax-ns#"
   xmlns:svg="http://www.w3.org/2000/svg"
   xmlns="http://www.w3.org/2000/svg"
   xmlns:sodipodi="http://sodipodi.sourceforge.net/DTD/sodipodi-0.dtd"
   xmlns:inkscape="http://www.inkscape.org/namespaces/inkscape"
   sodipodi:docname="elements-f01.svg"
   inkscape:version="1.0beta1 (a4ee55bc41, 2019-11-15)"
   sodipodi:version="0.32"
   id="svg1831"
   viewBox="0 0 300 165"
   height="165"
   width="300"
   version="1.1">
  <defs
     id="defs3" />
  <sodipodi:namedview
     inkscape:window-maximized="1"
     inkscape:window-y="27"
     inkscape:window-x="54"
     inkscape:window-height="1016"
     inkscape:window-width="1866"
     inkscape:guide-bbox="true"
     showguides="true"
     units="px"
     showgrid="false"
     inkscape:document-rotation="0"
     inkscape:current-layer="layer1"
     inkscape:document-units="px"
     inkscape:cy="64.43145"
     inkscape:cx="96.011994"
     inkscape:zoom="1.4"
     inkscape:pageshadow="2"
     inkscape:pageopacity="0.0"
     borderopacity="1.0"
     bordercolor="#666666"
     pagecolor="#ffffff"
     id="base"
     inkscape:lockguides="true" />
  <metadata
     id="metadata4">
    <rdf:RDF>
      <cc:Work
         rdf:about="">
        <dc:format>image/svg+xml</dc:format>
        <dc:type
           rdf:resource="http://purl.org/dc/dcmitype/StillImage" />
        <dc:title />
      </cc:Work>
    </rdf:RDF>
  </metadata>
  <g
     id="layer1"
     inkscape:groupmode="layer"
     inkscape:label="Layer 1">
    <rect
       y="0.31475523"
       x="0.31473649"
       height="164.26653"
       width="299.37051"
       id="rect1801"
       style="fill:#e1e1e1;fill-rule:evenodd;stroke:#000000;stroke-width:0.629473;fill-opacity:0.25" />
    <path
       style="fill:#0000ff;fill-opacity:0.304598;fill-rule:evenodd;stroke:#000000;stroke-width:1.65954;stroke-opacity:0.33"
       d="m 243.38282,76.092768 c 0,33.760942 -27.36869,61.129582 -61.12968,61.129582 -33.76099,0 -61.12967,-27.36864 -61.12967,-61.129582 0,-33.760937 27.36868,-61.129578 61.12967,-61.129578 33.76099,0 61.12968,27.368641 61.12968,61.129578 z"
       id="path1721"
       inkscape:connector-curvature="0" />
    <path
       style="fill:#ff00f5;fill-opacity:0.281609;fill-rule:evenodd;stroke:#000000;stroke-width:1.65954;stroke-opacity:0.327586"
       d="m 183.34478,76.092426 c 0,-33.760937 -27.36868,-61.129577 -61.12967,-61.129577 -33.760992,0 -61.129676,27.36864 -61.129676,61.129577 0,33.760944 27.368684,61.129584 61.129676,61.129584 33.76099,0 61.12967,-27.36864 61.12967,-61.129584 z"
       id="path1722"
       inkscape:connector-curvature="0" />
    <text
       id="text1752"
       y="151.44952"
       x="92.967438"
       style="font-style:normal;font-variant:normal;font-weight:bold;font-stretch:normal;font-size:11.7725px;line-height:0%;font-family:'Liberation Sans',Arial,sans-serif;writing-mode:lr-tb;text-anchor:start;fill:#ff00f7;fill-opacity:0.597701;stroke:none;stroke-width:2.94311pt;stroke-linecap:butt;stroke-linejoin:miter;stroke-opacity:1"
       xml:space="preserve"><tspan
         style="font-size:9.81038px;line-height:1;fill:#ff00f7;fill-opacity:0.597701;stroke-width:2.94311pt"
         dy="0 0 0 0 0 0 0 0"
         dx="0 0 0 0 0 0 0 0"
         id="tspan1732"
         sodipodi:role="line"
         y="151.44952"
         x="92.967438">Elements</tspan></text>
    <text
       id="text1755"
       y="151.44952"
       x="158.29549"
       style="font-style:normal;font-variant:normal;font-weight:bold;font-stretch:normal;font-size:11.7725px;line-height:0%;font-family:'Liberation Sans',Arial,sans-serif;writing-mode:lr-tb;text-anchor:start;fill:#0000ff;fill-opacity:0.6;stroke:none;stroke-width:2.94311pt;stroke-linecap:butt;stroke-linejoin:miter;stroke-opacity:1"
       xml:space="preserve"><tspan
         style="font-size:9.81038px;line-height:1;fill:#0000ff;fill-opacity:0.6;stroke-width:2.94311pt"
         dy="0 0 0 0 0 0 0 0 0 0"
         dx="0 0 0 0 0 0 0 0 0 0"
         id="tspan1738"
         sodipodi:role="line"
         y="151.44952"
         x="158.29549">Principles</tspan></text>
    <text
       id="text1758"
       y="98.235756"
       x="81.711914"
       style="font-style:normal;font-variant:normal;font-weight:normal;font-stretch:normal;font-size:11.7725px;line-height:0%;font-family:'Liberation Sans',Arial,sans-serif;writing-mode:lr-tb;text-anchor:start;fill:#000000;fill-opacity:1;stroke:none;stroke-width:2.94311pt;stroke-linecap:butt;stroke-linejoin:miter;stroke-opacity:1"
       xml:space="preserve"><tspan
         dx="0 0 0 0"
         dy="0 0 0 0"
         id="tspan1741"
         sodipodi:role="line"
         y="98.235756"
         x="81.711914"
         style="font-size:7.8483px;line-height:1;stroke-width:2.94311pt">Color</tspan></text>
    <text
       id="text1761"
       y="32.026802"
       x="107.54029"
       style="font-style:normal;font-variant:normal;font-weight:normal;font-stretch:normal;font-size:11.7725px;line-height:0%;font-family:'Liberation Sans',Arial,sans-serif;writing-mode:lr-tb;text-anchor:start;fill:#000000;fill-opacity:1;stroke:none;stroke-width:2.94311pt;stroke-linecap:butt;stroke-linejoin:miter;stroke-opacity:1"
       xml:space="preserve"><tspan
         dx="0 0 0 0"
         dy="0 0 0 0"
         id="tspan1744"
         sodipodi:role="line"
         y="32.026802"
         x="107.54029"
         style="font-size:7.8483px;line-height:1;stroke-width:2.94311pt">Line</tspan></text>
    <text
       id="text1764"
       y="46.663303"
       x="86.382683"
       style="font-style:normal;font-variant:normal;font-weight:normal;font-stretch:normal;font-size:11.7725px;line-height:0%;font-family:'Liberation Sans',Arial,sans-serif;writing-mode:lr-tb;text-anchor:start;fill:#000000;fill-opacity:1;stroke:none;stroke-width:2.94311pt;stroke-linecap:butt;stroke-linejoin:miter;stroke-opacity:1"
       xml:space="preserve"><tspan
         dx="0 0 0 0"
         dy="0 0 0 0"
         id="tspan1747"
         sodipodi:role="line"
         y="46.663303"
         x="86.382683"
         style="font-size:7.8483px;line-height:1;stroke-width:2.94311pt">Shape</tspan></text>
    <text
       id="text1767"
       y="81.527863"
       x="74.759689"
       style="font-style:normal;font-variant:normal;font-weight:normal;font-stretch:normal;font-size:11.7725px;line-height:0%;font-family:'Liberation Sans',Arial,sans-serif;writing-mode:lr-tb;text-anchor:start;fill:#000000;fill-opacity:1;stroke:none;stroke-width:2.94311pt;stroke-linecap:butt;stroke-linejoin:miter;stroke-opacity:1"
       xml:space="preserve"><tspan
         dy="0 0 0 0 0"
         dx="0 0 0 0 0"
         id="tspan1750"
         sodipodi:role="line"
         y="81.527863"
         x="74.759689"
         style="font-size:7.8483px;line-height:1;stroke-width:2.94311pt">Space</tspan></text>
    <text
       id="text1770"
       y="112.81284"
       x="92.140251"
       style="font-style:normal;font-variant:normal;font-weight:normal;font-stretch:normal;font-size:11.7725px;line-height:0%;font-family:'Liberation Sans',Arial,sans-serif;writing-mode:lr-tb;text-anchor:start;fill:#000000;fill-opacity:1;stroke:none;stroke-width:2.94311pt;stroke-linecap:butt;stroke-linejoin:miter;stroke-opacity:1"
       xml:space="preserve"><tspan
         dy="0 0 0 0 0 0 0"
         dx="0 0 0 0 0 0 0"
         id="tspan1753"
         sodipodi:role="line"
         y="112.81284"
         x="92.140251"
         style="font-size:7.8483px;line-height:1;stroke-width:2.94311pt">Texture</tspan></text>
    <text
       id="text1773"
       y="126.71722"
       x="109.52083"
       style="font-style:normal;font-variant:normal;font-weight:normal;font-stretch:normal;font-size:11.7725px;line-height:0%;font-family:'Liberation Sans',Arial,sans-serif;writing-mode:lr-tb;text-anchor:start;fill:#000000;fill-opacity:1;stroke:none;stroke-width:2.94311pt;stroke-linecap:butt;stroke-linejoin:miter;stroke-opacity:1"
       xml:space="preserve"><tspan
         dy="0 0 0 0 0"
         dx="0 0 0 0 0"
         id="tspan1756"
         sodipodi:role="line"
         y="126.71722"
         x="109.52083"
         style="font-size:7.8483px;line-height:1;stroke-width:2.94311pt">Value</tspan></text>
    <text
       id="text1776"
       y="64.147301"
       x="74.759689"
       style="font-style:normal;font-variant:normal;font-weight:normal;font-stretch:normal;font-size:11.7725px;line-height:0%;font-family:'Liberation Sans',Arial,sans-serif;writing-mode:lr-tb;text-anchor:start;fill:#000000;fill-opacity:1;stroke:none;stroke-width:2.94311pt;stroke-linecap:butt;stroke-linejoin:miter;stroke-opacity:1"
       xml:space="preserve"><tspan
         dy="0 0 0 0"
         dx="0 0 0 0"
         id="tspan1759"
         sodipodi:role="line"
         y="64.147301"
         x="74.759689"
         style="font-size:7.8483px;line-height:1;stroke-width:2.94311pt">Size</tspan></text>
    <text
       id="text1779"
       y="33.980919"
       x="173.47408"
       style="font-style:normal;font-variant:normal;font-weight:normal;font-stretch:normal;font-size:11.7725px;line-height:0%;font-family:'Liberation Sans',Arial,sans-serif;writing-mode:lr-tb;text-anchor:start;fill:#000000;fill-opacity:1;stroke:none;stroke-width:2.94311pt;stroke-linecap:butt;stroke-linejoin:miter;stroke-opacity:1"
       xml:space="preserve"><tspan
         dy="0 0 0 0 0 0 0"
         dx="0 0 0 0 0 0 0"
         id="tspan1762"
         sodipodi:role="line"
         y="33.980919"
         x="173.47408"
         style="font-size:7.8483px;line-height:1;stroke-width:2.94311pt">Balance</tspan></text>
    <text
       id="text1782"
       y="50.635559"
       x="183.67584"
       style="font-style:normal;font-variant:normal;font-weight:normal;font-stretch:normal;font-size:11.7725px;line-height:0%;font-family:'Liberation Sans',Arial,sans-serif;writing-mode:lr-tb;text-anchor:start;fill:#000000;fill-opacity:1;stroke:none;stroke-width:2.94311pt;stroke-linecap:butt;stroke-linejoin:miter;stroke-opacity:1"
       xml:space="preserve"><tspan
         dy="0 0 0 0 0 0 0 0"
         dx="0 0 0 0 0 0 0 0"
         id="tspan1765"
         sodipodi:role="line"
         y="50.635559"
         x="183.67584"
         style="font-size:7.8483px;line-height:1;stroke-width:2.94311pt">Contrast</tspan></text>
    <text
       id="text1785"
       y="70.093987"
       x="188.77679"
       style="font-style:normal;font-variant:normal;font-weight:normal;font-stretch:normal;font-size:11.7725px;line-height:0%;font-family:'Liberation Sans',Arial,sans-serif;writing-mode:lr-tb;text-anchor:start;fill:#000000;fill-opacity:1;stroke:none;stroke-width:2.94311pt;stroke-linecap:butt;stroke-linejoin:miter;stroke-opacity:1"
       xml:space="preserve"><tspan
         dy="0 0 0 0 0 0 0 0"
         dx="0 0 0 0 0 0 0 0"
         id="tspan1768"
         sodipodi:role="line"
         y="70.093987"
         x="188.77679"
         style="font-size:7.8483px;line-height:1;stroke-width:2.94311pt">Emphasis</tspan></text>
    <text
       id="text1788"
       y="89.552307"
       x="188.55032"
       style="font-style:normal;font-variant:normal;font-weight:normal;font-stretch:normal;font-size:11.7725px;line-height:0%;font-family:'Liberation Sans',Arial,sans-serif;writing-mode:lr-tb;text-anchor:start;fill:#000000;fill-opacity:1;stroke:none;stroke-width:2.94311pt;stroke-linecap:butt;stroke-linejoin:miter;stroke-opacity:1"
       xml:space="preserve"><tspan
         dy="0 0 0 0 0 0 0 0 0 0"
         dx="0 0 0 0 0 0 0 0 0 0"
         id="tspan1771"
         sodipodi:role="line"
         y="89.552307"
         x="188.55032"
         style="font-size:7.8483px;line-height:1;stroke-width:2.94311pt">Proportion</tspan></text>
    <text
       id="text1791"
       y="109.01069"
       x="182.99644"
       style="font-style:normal;font-variant:normal;font-weight:normal;font-stretch:normal;font-size:11.7725px;line-height:0%;font-family:'Liberation Sans',Arial,sans-serif;writing-mode:lr-tb;text-anchor:start;fill:#000000;fill-opacity:1;stroke:none;stroke-width:2.94311pt;stroke-linecap:butt;stroke-linejoin:miter;stroke-opacity:1"
       xml:space="preserve"><tspan
         dy="0 0 0 0 0 0 0"
         dx="0 0 0 0 0 0 0"
         id="tspan1774"
         sodipodi:role="line"
         y="109.01069"
         x="182.99644"
         style="font-size:7.8483px;line-height:1;stroke-width:2.94311pt">Pattern</tspan></text>
    <text
       transform="scale(1.0000258,0.99997421)"
       id="text1803"
       y="126.60123"
       x="168.14247"
       style="font-style:normal;font-variant:normal;font-weight:normal;font-stretch:normal;font-size:11.7725px;line-height:0%;font-family:'Liberation Sans',Arial,sans-serif;writing-mode:lr-tb;text-anchor:start;fill:#000000;fill-opacity:1;stroke:none;stroke-width:2.94311pt;stroke-linecap:butt;stroke-linejoin:miter;stroke-opacity:1"
       xml:space="preserve"><tspan
         dy="0 0 0 0 0 0 0 0 0"
         dx="0 0 0 0 0 0 0 0 0"
         id="tspan1786"
         sodipodi:role="line"
         y="126.60123"
         x="168.14247"
         style="font-size:7.84811px;line-height:1;stroke-width:2.94311pt">Gradation</tspan></text>
    <text
       id="text1806"
       y="79.084373"
       x="124.19861"
       style="font-style:normal;font-weight:bold;font-size:11.7725px;line-height:0%;font-family:'Liberation Sans',Arial,sans-serif;writing-mode:lr-tb;text-anchor:start;fill:#ffffff;fill-opacity:1;stroke:none;stroke-width:2.94311pt;stroke-linecap:butt;stroke-linejoin:miter;stroke-opacity:1"
       xml:space="preserve"><tspan
         style="font-size:7.8483px;line-height:1;fill:#ffffff;fill-opacity:1;stroke-width:2.94311pt"
         dy="0 0 0 0 0 0 0 0 0 0 0"
         dx="0 0 0 0 0 0 0 0 0 0 0"
         id="tspan1792"
         sodipodi:role="line"
         y="79.084373"
         x="124.19861">Composition</tspan></text>
    <text
       id="text1809"
       y="12.210741"
       x="5.103054"
       style="font-style:normal;font-variant:normal;font-weight:bold;font-stretch:normal;font-size:11.7725px;line-height:0%;font-family:'Liberation Sans',Arial,sans-serif;writing-mode:lr-tb;text-anchor:start;fill:#000000;fill-opacity:0.214765;stroke:none;stroke-width:2.94311pt;stroke-linecap:butt;stroke-linejoin:miter;stroke-opacity:1"
       xml:space="preserve"><tspan
         dy="0 0 0 0 0 0 0 0"
         dx="0 0 0 0 0 0 0 0"
         style="font-size:9.81038px;line-height:1;fill:#000000;fill-opacity:0.214765;stroke-width:2.94311pt"
         id="tspan1803"
         sodipodi:role="line"
         y="12.210741"
         x="5.103054">Overview</tspan></text>
  </g>
</svg>
