<?xml version="1.0" encoding="UTF-8" standalone="no"?>
<svg
   xmlns:dc="http://purl.org/dc/elements/1.1/"
   xmlns:cc="http://creativecommons.org/ns#"
   xmlns:rdf="http://www.w3.org/1999/02/22-rdf-syntax-ns#"
   xmlns:svg="http://www.w3.org/2000/svg"
   xmlns="http://www.w3.org/2000/svg"
   xmlns:xlink="http://www.w3.org/1999/xlink"
   xmlns:sodipodi="http://sodipodi.sourceforge.net/DTD/sodipodi-0.dtd"
   xmlns:inkscape="http://www.inkscape.org/namespaces/inkscape"
   sodipodi:docname="elements-f08.svg"
   inkscape:version="1.0beta1 (a4ee55bc41, 2019-11-15)"
   sodipodi:version="0.32"
   id="svg2175"
   viewBox="0 0 300 100"
   height="100"
   width="300"
   version="1.1">
  <defs
     id="defs3">
    <linearGradient
       id="linearGradient841">
      <stop
         id="stop842"
         offset="0.00000000"
         style="stop-color:#0082ab;stop-opacity:1;" />
      <stop
         id="stop1842"
         offset="0.34999999"
         style="stop-color:#0082ab;stop-opacity:0.5;" />
      <stop
         id="stop1843"
         offset="0.63000000"
         style="stop-color:#0082ab;stop-opacity:0.22;" />
      <stop
         id="stop843"
         offset="1.00000000"
         style="stop-color:#0082ab;stop-opacity:0;" />
    </linearGradient>
    <linearGradient
       id="linearGradient1054"
       xlink:href="#linearGradient841" />
    <linearGradient
       id="linearGradient1056">
      <stop
         id="stop1057"
         offset="0.00000000"
         style="stop-color:#0082ab;stop-opacity:0;" />
      <stop
         id="stop1058"
         offset="1.00000000"
         style="stop-color:#000000;stop-opacity:1;" />
    </linearGradient>
    <linearGradient
       y2="0"
       x2="1"
       y1="0"
       x1="0"
       id="linearGradient1059"
       xlink:href="#linearGradient1056" />
    <linearGradient
       id="linearGradient1077">
      <stop
         id="stop1078"
         offset="0.00000000"
         style="stop-color:#ff2ee1;stop-opacity:0.529229;" />
      <stop
         id="stop1079"
         offset="1.00000000"
         style="stop-color:#000000;stop-opacity:0;" />
    </linearGradient>
    <linearGradient
       y2="0"
       x2="1"
       y1="0"
       x1="0"
       id="linearGradient1074"
       xlink:href="#linearGradient1077" />
    <linearGradient
       id="linearGradient1080">
      <stop
         id="stop1081"
         offset="0.00000000"
         style="stop-color:#7d4ad2;stop-opacity:0.532296;" />
      <stop
         id="stop1082"
         offset="1.00000000"
         style="stop-color:#ffffff;stop-opacity:0;" />
    </linearGradient>
    <linearGradient
       y2="0"
       x2="1"
       y1="0"
       x1="0"
       id="linearGradient1603"
       xlink:href="#linearGradient1080" />
    <linearGradient
       gradientUnits="userSpaceOnUse"
       y2="6002.2607"
       x2="81.904678"
       y1="6002.2607"
       x1="4.2527437"
       gradientTransform="scale(3.700601,0.270226)"
       id="linearGradient2215"
       xlink:href="#linearGradient841"
       inkscape:collect="always" />
    <linearGradient
       gradientUnits="userSpaceOnUse"
       gradientTransform="scale(3.700601,0.270226)"
       y2="5885.7822"
       x2="81.904678"
       y1="5885.7822"
       x1="4.2527437"
       id="linearGradient2217"
       xlink:href="#linearGradient1056"
       inkscape:collect="always" />
    <linearGradient
       gradientUnits="userSpaceOnUse"
       gradientTransform="scale(3.700601,0.270226)"
       y2="5808.1299"
       x2="81.904678"
       y1="5808.1299"
       x1="4.2527437"
       id="linearGradient2219"
       xlink:href="#linearGradient1077"
       inkscape:collect="always" />
    <linearGradient
       gradientUnits="userSpaceOnUse"
       gradientTransform="scale(3.700601,0.270226)"
       y2="5730.479"
       x2="81.904678"
       y1="5730.479"
       x1="4.2527437"
       id="linearGradient2221"
       xlink:href="#linearGradient1080"
       inkscape:collect="always" />
    <linearGradient
       y2="5730.479"
       x2="81.904678"
       y1="5730.479"
       x1="4.2527437"
       gradientTransform="matrix(3.6321313,0,0,0.26522619,-7.1905525,-1511.4387)"
       gradientUnits="userSpaceOnUse"
       id="linearGradient2224"
       xlink:href="#linearGradient1080"
       inkscape:collect="always" />
    <linearGradient
       y2="5808.1299"
       x2="81.904678"
       y1="5808.1299"
       x1="4.2527437"
       gradientTransform="matrix(3.6321313,0,0,0.26522619,-7.1905525,-1511.4387)"
       gradientUnits="userSpaceOnUse"
       id="linearGradient2227"
       xlink:href="#linearGradient1077"
       inkscape:collect="always" />
    <linearGradient
       y2="5885.7822"
       x2="81.904678"
       y1="5885.7822"
       x1="4.2527437"
       gradientTransform="matrix(3.6321313,0,0,0.26522619,-7.1905525,-1511.4387)"
       gradientUnits="userSpaceOnUse"
       id="linearGradient2230"
       xlink:href="#linearGradient1056"
       inkscape:collect="always" />
    <linearGradient
       y2="6002.2607"
       x2="81.904678"
       y1="6002.2607"
       x1="4.2527437"
       gradientTransform="matrix(3.6321313,0,0,0.26522619,-7.1905525,-1511.4387)"
       gradientUnits="userSpaceOnUse"
       id="linearGradient2233"
       xlink:href="#linearGradient841"
       inkscape:collect="always" />
  </defs>
  <sodipodi:namedview
     inkscape:window-maximized="1"
     inkscape:window-y="27"
     inkscape:window-x="54"
     inkscape:window-height="1016"
     inkscape:window-width="1866"
     inkscape:guide-bbox="true"
     showguides="true"
     units="px"
     showgrid="false"
     inkscape:document-rotation="0"
     inkscape:current-layer="layer1"
     inkscape:document-units="px"
     inkscape:cy="50"
     inkscape:cx="160"
     inkscape:zoom="1.4"
     inkscape:pageshadow="2"
     inkscape:pageopacity="0.0"
     borderopacity="1.0"
     bordercolor="#666666"
     pagecolor="#ffffff"
     id="base"
     inkscape:lockguides="true" />
  <metadata
     id="metadata4">
    <rdf:RDF>
      <cc:Work
         rdf:about="">
        <dc:format>image/svg+xml</dc:format>
        <dc:type
           rdf:resource="http://purl.org/dc/dcmitype/StillImage" />
        <dc:title />
      </cc:Work>
    </rdf:RDF>
  </metadata>
  <g
     id="layer1"
     inkscape:groupmode="layer"
     inkscape:label="Layer 1">
    <rect
       y="0.24419956"
       x="0.24454901"
       height="99.125145"
       width="299.51089"
       id="rect2122"
       style="fill:none;fill-rule:evenodd;stroke:#000000;stroke-width:0.489098" />
    <rect
       y="70.222633"
       x="8.25597"
       height="20.595358"
       width="282.04202"
       id="rect2151"
       style="fill:url(#linearGradient2233);fill-opacity:0.75;fill-rule:evenodd;stroke:none;stroke-width:1.11502pt" />
    <rect
       y="49.627121"
       x="8.25597"
       height="20.595358"
       width="282.04202"
       id="rect2152"
       style="fill:url(#linearGradient2230);fill-opacity:0.75;fill-rule:evenodd;stroke:none;stroke-width:1.11502pt" />
    <rect
       y="29.031723"
       x="8.25597"
       height="20.595358"
       width="282.04202"
       id="rect2156"
       style="fill:url(#linearGradient2227);fill-opacity:0.75;fill-rule:evenodd;stroke:none;stroke-width:1.11502pt" />
    <rect
       y="8.4365664"
       x="8.25597"
       height="20.595358"
       width="282.04202"
       id="rect2157"
       style="fill:url(#linearGradient2224);fill-opacity:0.75;fill-rule:evenodd;stroke:none;stroke-width:1.11502pt" />
  </g>
</svg>
