<?xml version="1.0" encoding="UTF-8" standalone="no"?>
<svg
   xmlns:dc="http://purl.org/dc/elements/1.1/"
   xmlns:cc="http://creativecommons.org/ns#"
   xmlns:rdf="http://www.w3.org/1999/02/22-rdf-syntax-ns#"
   xmlns:svg="http://www.w3.org/2000/svg"
   xmlns="http://www.w3.org/2000/svg"
   xmlns:sodipodi="http://sodipodi.sourceforge.net/DTD/sodipodi-0.dtd"
   xmlns:inkscape="http://www.inkscape.org/namespaces/inkscape"
   sodipodi:docname="basic-f01.svg"
   inkscape:version="1.0beta1 (459877fba3, 2019-11-14)"
   sodipodi:version="0.32"
   id="svg2869"
   viewBox="0 0 300 51"
   height="51"
   width="300"
   version="1.1">
  <defs
     id="defs3" />
  <sodipodi:namedview
     inkscape:window-maximized="0"
     inkscape:window-y="27"
     inkscape:window-x="54"
     inkscape:window-height="1053"
     inkscape:window-width="1866"
     inkscape:guide-bbox="true"
     showguides="true"
     units="px"
     showgrid="false"
     inkscape:document-rotation="0"
     inkscape:current-layer="layer1"
     inkscape:document-units="px"
     inkscape:cy="58.487391"
     inkscape:cx="273.67796"
     inkscape:zoom="1.4"
     inkscape:pageshadow="2"
     inkscape:pageopacity="0.0"
     borderopacity="1.0"
     bordercolor="#666666"
     pagecolor="#ffffff"
     id="base"
     inkscape:lockguides="true" />
  <metadata
     id="metadata4">
    <rdf:RDF>
      <cc:Work
         rdf:about="">
        <dc:format>image/svg+xml</dc:format>
        <dc:type
           rdf:resource="http://purl.org/dc/dcmitype/StillImage" />
        <dc:title />
      </cc:Work>
    </rdf:RDF>
  </metadata>
  <g
     id="layer1"
     inkscape:groupmode="layer"
     inkscape:label="Layer 1">
    <rect
       y="11.835085"
       x="23.003445"
       height="21.105692"
       width="19.394419"
       id="rect824"
       style="font-size:12px;fill:#0000ff;fill-opacity:1;fill-rule:evenodd;stroke:#000000;stroke-width:1.25" />
    <rect
       y="7.2717309"
       x="52.665424"
       height="15.971874"
       width="23.387388"
       id="rect825"
       style="font-size:12px;fill:#0000ff;fill-opacity:1;fill-rule:evenodd;stroke:#000000;stroke-width:1.25" />
    <rect
       y="0.99707252"
       x="84.609192"
       height="48.486046"
       width="71.303009"
       id="rect826"
       style="font-size:12px;fill:#0000ff;fill-opacity:1;fill-rule:evenodd;stroke:#000000;stroke-width:1.25" />
    <rect
       y="2.7083151"
       x="123.39815"
       height="22.24654"
       width="55.331135"
       id="rect827"
       style="font-size:12px;fill:#0000ff;fill-opacity:1;fill-rule:evenodd;stroke:#000000;stroke-width:1.25" />
    <rect
       y="15.828066"
       x="137.0885"
       height="25.09866"
       width="39.929688"
       id="rect828"
       style="font-size:12px;fill:#0000ff;fill-opacity:1;fill-rule:evenodd;stroke:#000000;stroke-width:1.25" />
    <rect
       y="23.814028"
       x="167.32089"
       height="24.528236"
       width="35.366295"
       id="rect829"
       style="font-size:12px;fill:#0000ff;fill-opacity:1;fill-rule:evenodd;stroke:#000000;stroke-width:1.25" />
    <rect
       y="4.4196191"
       x="191.2787"
       height="28.521204"
       width="31.943748"
       id="rect830"
       style="font-size:12px;fill:#0000ff;fill-opacity:1;fill-rule:evenodd;stroke:#000000;stroke-width:1.25" />
    <rect
       y="41.05286"
       x="228.14883"
       height="3.5281835"
       width="8.8204584"
       id="rect742"
       style="font-size:12px;fill:#0000ff;fill-opacity:1;fill-rule:evenodd;stroke:#000000;stroke-width:1pt" />
    <rect
       y="28.116152"
       x="247.55379"
       height="4.1162143"
       width="7.0563669"
       id="rect743"
       style="font-size:12px;fill:#0000ff;fill-opacity:1;fill-rule:evenodd;stroke:#000000;stroke-width:1pt" />
    <rect
       y="20.471804"
       x="262.25406"
       height="1.7640917"
       width="4.1162143"
       id="rect744"
       style="font-size:12px;fill:#0000ff;fill-opacity:1;fill-rule:evenodd;stroke:#000000;stroke-width:1pt" />
    <rect
       y="17.531618"
       x="274.01474"
       height="1.1760612"
       width="2.9401529"
       id="rect745"
       style="font-size:12px;fill:#0000ff;fill-opacity:1;fill-rule:evenodd;stroke:#000000;stroke-width:1pt" />
  </g>
</svg>
