<?xml version="1.0" encoding="UTF-8" standalone="no"?>
<svg
   xmlns:dc="http://purl.org/dc/elements/1.1/"
   xmlns:cc="http://creativecommons.org/ns#"
   xmlns:rdf="http://www.w3.org/1999/02/22-rdf-syntax-ns#"
   xmlns:svg="http://www.w3.org/2000/svg"
   xmlns="http://www.w3.org/2000/svg"
   xmlns:xlink="http://www.w3.org/1999/xlink"
   xmlns:sodipodi="http://sodipodi.sourceforge.net/DTD/sodipodi-0.dtd"
   xmlns:inkscape="http://www.inkscape.org/namespaces/inkscape"
   sodipodi:docname="advanced-f11.svg"
   inkscape:version="1.0beta1 (459877fba3, 2019-11-14)"
   sodipodi:version="0.32"
   id="svg3907"
   viewBox="0 0 300 98"
   height="98"
   width="300"
   version="1.1">
  <defs
     id="defs3" />
  <sodipodi:namedview
     inkscape:window-maximized="0"
     inkscape:window-y="27"
     inkscape:window-x="54"
     inkscape:window-height="1053"
     inkscape:window-width="1866"
     inkscape:guide-bbox="true"
     showguides="true"
     units="px"
     showgrid="false"
     inkscape:document-rotation="0"
     inkscape:current-layer="layer1"
     inkscape:document-units="px"
     inkscape:cy="101.55558"
     inkscape:cx="337.12656"
     inkscape:zoom="1.4"
     inkscape:pageshadow="2"
     inkscape:pageopacity="0.0"
     borderopacity="1.0"
     bordercolor="#666666"
     pagecolor="#ffffff"
     id="base"
     inkscape:lockguides="true" />
  <metadata
     id="metadata4">
    <rdf:RDF>
      <cc:Work
         rdf:about="">
        <dc:format>image/svg+xml</dc:format>
        <dc:type
           rdf:resource="http://purl.org/dc/dcmitype/StillImage" />
        <dc:title />
      </cc:Work>
    </rdf:RDF>
  </metadata>
  <g
     inkscape:groupmode="layer"
     id="layer1"
     inkscape:label="Layer 1">
    <g
       transform="translate(-27.681047)"
       id="g8809">
      <path
         inkscape:connector-curvature="0"
         style="fill:none;stroke:#ff0100;stroke-width:0.675;stroke-linecap:butt;stroke-linejoin:miter;stroke-opacity:1"
         d="m 113.66892,73.852917 c -16.593444,-6.2126 -28.727341,-20.6241 -26.506358,-37.5836 1.074437,-8.2045 7.150966,-22.5219 11.082271,-29.1833003 2.317377,-3.9266997 0.06287,6.3871003 -0.15929,8.3469003 -0.911689,8.0423 -0.664621,17.6086 6.227927,23.3136 3.44173,2.8487 8.32158,3.3459 6.88652,-2.8132 -2.18193,-9.3644 10.90279,-16.8506 20.11048,-13.9346 7.10729,2.2509 12.72804,9.4197 10.96826,16.9486 -1.90673,8.1575 -11.60889,4.7505 -13.16014,-2.7849 -1.53409,-7.452 -10.92999,1.6922 -9.85543,7.2857 1.47573,7.6817 9.57174,9.5136 16.00972,10.2335 7.9762,0.892 18.6992,-2.9107 19.60127,-11.7376 0.7287,-7.1304 3.81339,-14.3436 11.81859,-15.2437 9.37831,-1.0545 19.57168,-0.8772 33.29708,-0.1784 -15.92588,0 -23.9844,10.5018 -28.31059,19.0116 -4.00187,7.8719 -13.27265,12.6442 -21.55869,13.805 -10.35699,1.4509 -24.13388,-0.7852 -30.18143,-0.7852 0,10.7174 9.08366,15.6834 16.616,15.4052 6.95456,-0.2568 11.56767,-8.6819 18.44532,-11.4902 8.51922,-3.4786 18.51358,-3.2501 26.13442,2.2007 6.03901,4.3193 12.03032,12.1167 8.6618,19.6431 -3.35625,7.4991 -13.9031,8.7109 -20.32443,3.8681 -5.82643,-4.3942 -12.20243,-9.1596 -20.20393,-9.1204 -7.06173,0.0345 -11.04337,2.4957 -12.62436,10.3187 -2.52884,-6.8607 -7.04977,-9.8139 -22.97501,-15.5256 z"
         id="path1987"
         sodipodi:nodetypes="csssssssssssscsscsssssscs" />
      <path
         sodipodi:type="inkscape:offset"
         inkscape:radius="5.5419211"
         inkscape:original="M 98.912109 6.2363281 C 98.75241 6.3262799 98.533813 6.5951 98.244141 7.0859375 C 94.312836 13.747338 88.236546 28.065031 87.162109 36.269531 C 84.941126 53.229031 97.074525 67.640916 113.66797 73.853516 C 129.59321 79.565216 134.11569 82.518206 136.64453 89.378906 C 138.22552 81.555906 142.20585 79.095047 149.26758 79.060547 C 157.26908 79.021347 163.64623 83.785488 169.47266 88.179688 C 175.89399 93.022487 186.44063 91.8116 189.79688 84.3125 C 193.16539 76.7861 187.17378 68.989222 181.13477 64.669922 C 173.51393 59.219122 163.51922 58.99015 155 62.46875 C 148.12235 65.27705 143.50925 73.702184 136.55469 73.958984 C 129.02235 74.237184 119.93945 69.270134 119.93945 58.552734 C 125.987 58.552734 139.7641 60.788791 150.12109 59.337891 C 158.40713 58.177091 167.67782 53.405103 171.67969 45.533203 C 176.00588 37.023403 184.06435 26.521484 199.99023 26.521484 C 186.26483 25.822684 176.07167 25.646672 166.69336 26.701172 C 158.68816 27.601272 155.6037 34.812959 154.875 41.943359 C 153.97293 50.770259 143.24964 54.573641 135.27344 53.681641 C 128.83546 52.961741 120.7394 51.128966 119.26367 43.447266 C 118.18911 37.853766 127.58505 28.710109 129.11914 36.162109 C 130.67039 43.697509 140.37257 47.104766 142.2793 38.947266 C 144.03908 31.418366 138.41784 24.248947 131.31055 21.998047 C 122.10286 19.082047 109.01729 26.569194 111.19922 35.933594 C 112.63428 42.092694 107.75423 41.594794 104.3125 38.746094 C 97.419952 33.041094 97.174249 23.475894 98.085938 15.433594 C 98.280327 13.718769 100.03001 5.606666 98.912109 6.2363281 z "
         style="fill:none;stroke:#000000;stroke-width:0.675;stroke-opacity:1"
         id="path1988"
         d="M 98.580078,0.75390625 C 97.590436,0.83385261 96.713188,1.1143076 96.191406,1.4082031 93.802247,2.7539174 93.930481,3.4904563 93.470703,4.2695312 89.043169,11.771768 82.983924,25.502022 81.667969,35.550781 79.05706,55.487768 93.326263,72.154612 111.72461,79.042969 a 5.5424753,5.5424753 0 0 0 0.0723,0.02734 c 7.83385,2.809669 12.63544,4.929082 15.29296,6.714844 2.65753,1.785762 3.37259,2.843222 4.35547,5.509766 a 5.5424753,5.5424753 0 0 0 10.63086,-0.81836 c 0.63397,-3.136963 1.45927,-4.211123 2.20508,-4.785156 0.74581,-0.574033 2.12144,-1.075714 5.01367,-1.089844 5.78736,-0.02835 11.02807,3.618804 16.83985,8.001954 4.55249,3.433375 10.2129,4.616008 15.54882,3.738281 5.33592,-0.877727 10.65498,-4.141956 13.17188,-9.765625 2.47625,-5.532796 1.40787,-11.440837 -0.97266,-15.898438 -2.38053,-4.4576 -5.92593,-7.942571 -9.52343,-10.515625 -3.94682,-2.82296 -8.35603,-4.435076 -12.875,-5.123047 2.01555,-2.011818 3.7773,-4.323945 5.13476,-6.99414 3.90101,-7.673444 9.88153,-15.982422 23.37109,-15.982422 a 5.5424753,5.5424753 0 0 0 0.28125,-11.076172 c -13.81735,-0.703482 -24.30782,-0.904941 -34.19726,0.207031 -5.55719,0.624847 -10.05305,3.83573 -12.63672,7.728516 -2.58367,3.892786 -3.65063,8.295023 -4.07617,12.458984 -0.23342,2.284055 -1.51739,3.789095 -4.16211,5.144532 -0.54205,0.277801 -1.25501,0.38 -1.87695,0.59375 2.17334,-1.645526 3.70685,-4.143573 4.35351,-6.910157 2.53256,-10.835104 -5.15684,-20.474516 -14.6914,-23.49414 -6.62571,-2.098307 -13.56026,-0.523935 -19.00586,2.990234 -4.04253,2.608731 -7.51309,6.919311 -8.3418,11.984375 -2.43112,-4.020639 -2.71759,-9.69703 -2.04492,-15.630859 -0.002,0.01987 0.52926,-2.924451 0.88086,-5.28711 0.17579,-1.1813289 0.3338,-2.2696496 0.35156,-3.5273434 0.009,-0.6288469 0.15618,-1.1682229 -0.39844,-2.7246094 -0.27731,-0.7781932 -0.83254,-2.2063817 -2.7793,-3.21875 C 100.67311,0.79459711 99.56972,0.67395989 98.580078,0.75390625 Z M 125.10547,41.349609 c 1.20772,2.377788 2.99417,4.286007 5.11328,5.654297 -0.81851,-0.245977 -1.69574,-0.467615 -2.33008,-0.785156 -1.97805,-0.990193 -2.78261,-1.739302 -3.18164,-3.816406 0.0664,0.345797 -0.001,-0.243299 0.39649,-1.048828 6e-4,-0.0012 0.001,-0.0027 0.002,-0.0039 z m 2.58789,23.291016 c 1.973,0.161038 3.04095,0.218819 5.3418,0.376953 2.75482,0.189335 5.67538,0.338052 8.625,0.351563 -2.37646,1.978251 -4.11948,3.0068 -5.31055,3.050781 -2.46838,0.09117 -5.44589,-0.766716 -7.48438,-2.382813 -0.48633,-0.385565 -0.77328,-0.94162 -1.17187,-1.396484 z"
         xlink:href="#path1987"
         inkscape:href="#path1987" />
      <path
         sodipodi:type="inkscape:offset"
         inkscape:radius="-1.1492475"
         inkscape:original="M 98.912109 6.2363281 C 98.75241 6.3262799 98.533813 6.5951 98.244141 7.0859375 C 94.312836 13.747338 88.236546 28.065031 87.162109 36.269531 C 84.941126 53.229031 97.074525 67.640916 113.66797 73.853516 C 129.59321 79.565216 134.11569 82.518206 136.64453 89.378906 C 138.22552 81.555906 142.20585 79.095047 149.26758 79.060547 C 157.26908 79.021347 163.64623 83.785488 169.47266 88.179688 C 175.89399 93.022487 186.44063 91.8116 189.79688 84.3125 C 193.16539 76.7861 187.17378 68.989222 181.13477 64.669922 C 173.51393 59.219122 163.51922 58.99015 155 62.46875 C 148.12235 65.27705 143.50925 73.702184 136.55469 73.958984 C 129.02235 74.237184 119.93945 69.270134 119.93945 58.552734 C 125.987 58.552734 139.7641 60.788791 150.12109 59.337891 C 158.40713 58.177091 167.67782 53.405103 171.67969 45.533203 C 176.00588 37.023403 184.06435 26.521484 199.99023 26.521484 C 186.26483 25.822684 176.07167 25.646672 166.69336 26.701172 C 158.68816 27.601272 155.6037 34.812959 154.875 41.943359 C 153.97293 50.770259 143.24964 54.573641 135.27344 53.681641 C 128.83546 52.961741 120.7394 51.128966 119.26367 43.447266 C 118.18911 37.853766 127.58505 28.710109 129.11914 36.162109 C 130.67039 43.697509 140.37257 47.104766 142.2793 38.947266 C 144.03908 31.418366 138.41784 24.248947 131.31055 21.998047 C 122.10286 19.082047 109.01729 26.569194 111.19922 35.933594 C 112.63428 42.092694 107.75423 41.594794 104.3125 38.746094 C 97.419952 33.041094 97.174249 23.475894 98.085938 15.433594 C 98.280327 13.718769 100.03001 5.606666 98.912109 6.2363281 z "
         style="fill-rule:evenodd;stroke-width:0.425"
         id="path1989"
         d="m 97.722656,10.585938 c -3.753809,7.200581 -8.519345,18.940231 -9.421875,25.832031 -2.139503,16.337314 9.544026,30.27825 25.755859,36.353515 0.002,5.79e-4 0.002,0.0014 0.004,0.002 0.003,0.0012 0.006,0.0027 0.01,0.0039 7.97992,2.862495 13.15339,5.036327 16.75,7.453125 2.68409,1.803614 4.29994,3.922009 5.58203,6.302734 0.8814,-2.611626 2.03418,-4.787821 3.79688,-6.144531 2.35115,-1.809622 5.3992,-2.458666 9.0625,-2.476563 8.46065,-0.04145 15.07287,4.953118 20.90234,9.34961 2.93241,2.211542 6.88104,3.06289 10.4336,2.478515 3.55255,-0.584374 6.6462,-2.535577 8.15039,-5.896484 1.52001,-3.396233 0.95032,-6.796851 -0.76758,-10.013672 -1.71791,-3.216821 -4.61403,-6.150688 -7.51367,-8.224609 -7.24651,-5.183057 -16.82156,-5.425276 -25.03321,-2.072266 -3.1497,1.286097 -5.95694,3.985826 -8.87695,6.507813 -2.92001,2.521986 -6.02793,4.92125 -9.95898,5.066406 -4.0353,0.14904 -8.433,-1.088488 -11.88868,-3.828125 -3.45567,-2.739637 -5.91796,-7.043204 -5.91796,-12.726563 a 1.1493625,1.1493625 0 0 1 1.14843,-1.148437 c 3.16542,0 8.08813,0.563879 13.55274,0.939453 5.4646,0.375574 11.43992,0.559952 16.46875,-0.144531 7.97411,-1.117102 16.93139,-5.787499 20.69336,-13.1875 3.28285,-6.457514 8.83614,-14.154747 18.21679,-17.685547 -8.20803,-0.219074 -15.59141,-0.208496 -22.04882,0.517578 -3.68022,0.413802 -6.09522,2.195828 -7.8086,4.777344 -1.71337,2.581516 -2.64443,5.99842 -2.99609,9.439453 -0.49616,4.85503 -3.7374,8.355429 -7.76563,10.419922 -4.02823,2.064492 -8.88154,2.816123 -13.10547,2.34375 -3.27315,-0.366007 -7.026,-1.005239 -10.2539,-2.621094 -3.2279,-1.615855 -5.94968,-4.332458 -6.75781,-8.539063 -0.33813,-1.76007 0.14115,-3.594428 0.96875,-5.271484 0.82759,-1.677056 2.02631,-3.212572 3.36328,-4.353516 1.33696,-1.140943 2.82465,-1.965516 4.42382,-1.8125 0.79959,0.07651 1.60045,0.46498 2.17969,1.117188 0.57924,0.652208 0.95403,1.518242 1.17383,2.585938 0.68711,3.337741 3.24107,5.755217 5.62305,6.40039 1.19098,0.322587 2.28762,0.223755 3.18554,-0.30664 0.89793,-0.530396 1.68394,-1.526122 2.10743,-3.337891 1.59952,-6.843281 -3.59333,-13.50031 -10.19727,-15.591797 -4.18456,-1.325217 -9.47461,-0.271982 -13.35547,2.232422 -3.88086,2.504403 -6.24945,6.223926 -5.28906,10.345703 0.39065,1.676637 0.40097,3.025104 -0.0391,4.126953 -0.44004,1.101849 -1.43071,1.841916 -2.47266,2.046875 -2.08391,0.409918 -4.3255,-0.641346 -6.22656,-2.214844 -7.368286,-6.098769 -7.562501,-16.159567 -6.636721,-24.326171 0.100763,-0.888891 0.478652,-2.873556 0.779297,-4.71875 z"
         transform="matrix(0.39324,0,0,0.39324,199.7709,1.52383)"
         xlink:href="#path1987"
         inkscape:href="#path1987" />
    </g>
  </g>
</svg>
