<?xml version="1.0" encoding="UTF-8" standalone="no"?>
<svg
   xmlns:dc="http://purl.org/dc/elements/1.1/"
   xmlns:cc="http://creativecommons.org/ns#"
   xmlns:rdf="http://www.w3.org/1999/02/22-rdf-syntax-ns#"
   xmlns:svg="http://www.w3.org/2000/svg"
   xmlns="http://www.w3.org/2000/svg"
   xmlns:sodipodi="http://sodipodi.sourceforge.net/DTD/sodipodi-0.dtd"
   xmlns:inkscape="http://www.inkscape.org/namespaces/inkscape"
   sodipodi:docname="advanced-f09.svg"
   inkscape:version="1.0beta1 (459877fba3, 2019-11-14)"
   sodipodi:version="0.32"
   id="svg2094"
   viewBox="0 0 300 134"
   height="134"
   width="300"
   version="1.1">
  <defs
     id="defs3" />
  <sodipodi:namedview
     inkscape:window-maximized="0"
     inkscape:window-y="27"
     inkscape:window-x="54"
     inkscape:window-height="1053"
     inkscape:window-width="1866"
     inkscape:guide-bbox="true"
     showguides="true"
     units="px"
     showgrid="false"
     inkscape:document-rotation="0"
     inkscape:current-layer="layer1"
     inkscape:document-units="px"
     inkscape:cy="84.544598"
     inkscape:cx="309.15455"
     inkscape:zoom="1.4"
     inkscape:pageshadow="2"
     inkscape:pageopacity="0.0"
     borderopacity="1.0"
     bordercolor="#666666"
     pagecolor="#ffffff"
     id="base"
     inkscape:lockguides="true" />
  <metadata
     id="metadata4">
    <rdf:RDF>
      <cc:Work
         rdf:about="">
        <dc:format>image/svg+xml</dc:format>
        <dc:type
           rdf:resource="http://purl.org/dc/dcmitype/StillImage" />
        <dc:title />
      </cc:Work>
    </rdf:RDF>
  </metadata>
  <g
     id="layer1"
     inkscape:groupmode="layer"
     inkscape:label="Layer 1">
    <path
       sodipodi:nodetypes="csssssssssssscsscsssssscs"
       id="path1893"
       d="M 116.324,90.263 C 99.730551,84.0504 91.858126,64.1241 94.079109,47.1646 c 1.074437,-8.2045 2.889494,-17.0071 6.820801,-23.6685 2.31738,-3.9267 0.0629,6.3871 -0.15929,8.3469 -0.911691,8.0423 -0.66462,17.6086 6.22793,23.3136 3.44173,2.8487 8.32158,3.3459 6.88652,-2.8132 -2.18193,-9.3644 10.90279,-16.8506 20.11048,-13.9346 7.10729,2.2509 12.72804,9.4197 10.96826,16.9486 -1.90673,8.1575 -11.60889,4.7505 -13.16014,-2.7849 -1.53409,-7.452 -10.92999,1.6922 -9.85543,7.2857 1.47573,7.6817 9.57174,9.5136 16.00972,10.2335 7.9762,0.892 18.6992,-2.9107 19.60127,-11.7376 0.7287,-7.1304 3.81339,-14.3436 11.81859,-15.2437 9.37831,-1.0545 19.57168,-0.8772 33.29708,-0.1784 -15.92588,0 -23.9844,10.5018 -28.31059,19.0116 -4.00187,7.8719 -13.27265,12.6442 -21.55869,13.805 -10.35699,1.4509 -24.13388,-0.7852 -30.18143,-0.7852 0,10.7174 9.08366,15.6834 16.616,15.4052 6.95456,-0.2568 11.56767,-8.6819 18.44532,-11.4902 8.51922,-3.4786 18.51358,-3.2501 26.13442,2.2007 6.03901,4.3193 12.03032,12.1167 8.6618,19.6431 -3.35625,7.4991 -13.9031,8.7109 -20.32443,3.8681 -5.82643,-4.3942 -12.20243,-9.1596 -20.20393,-9.1204 -7.06173,0.0345 -11.04337,2.4957 -12.62436,10.3187 -2.52884,-6.8607 -7.04977,-9.8139 -22.97501,-15.5256 z"
       style="fill:none;fill-opacity:0.75;fill-rule:evenodd;stroke:#ff0100;stroke-width:0.675;stroke-linecap:butt;stroke-linejoin:miter;stroke-opacity:1"
       inkscape:connector-curvature="0" />
    <path
       id="path1895"
       d="M 100.01222,21.3983 C 93.425755,32.41 91.15345,46.0374 92.157974,58.755 c 1.466153,15.9453 12.325356,30.9208 28.107736,35.2062 8.39221,2.5896 16.35087,7.4826 19.14186,16.2887 2.30252,-2.1431 2.23794,-11.427 8.3234,-12.2891 10.67657,-2.6818 18.6812,5.9355 27.25908,10.3849 9.49863,4.4389 22.7177,-3.6319 20.13427,-14.6459 -3.68651,-15.1478 -22.17546,-22.9454 -36.23394,-17.2777 -9.16406,2.0952 -14.33406,15.0513 -24.90941,11.2262 -4.15634,-0.3014 -12.22526,-9.4724 -7.12994,-10.3908 15.56405,1.3074 34.07718,3.2518 45.77841,-9.433 5.96766,-8.4026 10.84373,-19.4327 22.09955,-21.7425 3.949,-0.6228 17.72984,-2.3353 7.97073,-5.1525 -12.56244,-0.039 -25.67924,-1.841 -37.90152,1.4328 -8.51617,3.3589 -7.74642,13.6734 -11.22348,20.4735 -7.16272,7.4124 -21.55762,7.1071 -28.4297,-0.3946 -2.97166,-3.595 0.097,-9.54 4.1172,-10.5117 0.97348,6.9627 10.39957,14.1173 16,7.4063 7.64033,-12.4194 -8.42259,-27.667 -21.0854,-22.6911 -8.1936,1.7471 -14.36005,9.9352 -12.19585,18.2848 -9.12176,-1.8444 -10.21928,-14.0601 -9.31631,-21.8967 -0.37932,-4.2875 3.97767,-10.8722 -1.46494,-13.1033 -0.20957,0.2592 -1.00124,1.2384 -1.1875,1.4688 z"
       style="fill:none;fill-opacity:0.75;fill-rule:evenodd;stroke:#000000;stroke-width:0.175;stroke-linecap:butt;stroke-linejoin:miter;stroke-opacity:1"
       inkscape:connector-curvature="0" />
    <path
       id="path1898"
       d="m 100.66847,15.7108 c -5.352563,2.7225 -6.766841,10.3472 -9.250672,15.5532 -7.121291,20.6778 -3.884283,47.7923 15.681062,60.5812 8.90492,7.0478 22.79825,6.8743 28.03836,18.3968 2.06,6.3998 4.09225,12.4065 7.29415,3.1594 2.69268,-4.7914 3.34677,-13.5793 11.01835,-11.7531 11.52108,2.4269 20.78794,15.6484 33.52237,10.8675 12.26536,-3.2141 16.17465,-19.8599 7.73135,-28.9026 -4.80845,-6.463 -12.31617,-11.0528 -20.28497,-12.2774 7.45774,-8.2699 12.17523,-21.6829 25.23199,-22.0727 4.67171,-0.4744 9.69445,-2.1459 11.70551,-6.8023 -6.60416,-8.8109 -18.34608,-4.8602 -27.62453,-5.9566 -10.39126,0.0672 -24.54195,-0.3382 -29.27477,11.1051 -2.20072,4.6227 -2.00862,10.5424 -6.0382,14.1327 7.87277,-11.7848 -2.74443,-27.82 -15.75274,-29.5126 -10.10867,-2.0668 -21.56275,4.4545 -24.34101,14.5126 -4.72346,-8.6206 1.65728,-18.9238 -1.875,-27.5 -1.37046,-1.7725 -3.4562,-3.7795 -5.78125,-3.5312 z m 28.71875,44.9062 c -1.42262,-1.6069 -1.61388,-2.3151 0,0 z m 9.21875,21.5 c 7.65697,-0.9517 1.66344,2.7741 -2.5625,1.8125 -7.87819,-2.432 -2.69295,-2.4662 2.5625,-1.8125 z"
       style="fill:none;fill-opacity:0.75;fill-rule:evenodd;stroke:#000000;stroke-width:0.175;stroke-linecap:butt;stroke-linejoin:miter;stroke-opacity:1"
       inkscape:connector-curvature="0" />
    <path
       id="path1903"
       d="m 98.543468,12.8045 c -9.98014,7.226 -12.053152,20.8525 -13.978169,32.2003 -2.927457,22.2713 8.395663,47.0312 30.165511,55.2853 8.34958,3.2244 17.23887,8.4397 19.0936,17.945 2.70093,6.1293 12.39577,2.9429 12.26718,-3.3748 0.72995,-6.1709 8.0128,-12.2189 13.10813,-6.212 10.17361,5.6612 23.73655,13.3504 34.52042,4.6229 13.25216,-8.5197 11.13318,-30.1476 -1.93829,-37.9638 -2.45298,-4.1967 -14.45809,-4.5851 -7.96951,-9.9418 4.81497,-7.4108 12.60052,-12.8778 21.50211,-13.4789 4.56879,-1.4485 10.58558,-6.1835 10.55194,-10.6835 -9.87283,-12.008 -27.11634,-8.1234 -40.72917,-8.4299 -8.40065,0.4504 -17.0373,2.8888 -22.59375,9.625 -7.20448,-13.7268 -26.6024,-18.6495 -39.15283,-9.291 -4.76926,2.4039 -0.34659,-9.0668 -2.62842,-12.4278 -1.13985,-5.1329 -6.72295,-11.096 -12.218752,-7.875 z"
       style="fill:none;fill-opacity:0.75;fill-rule:evenodd;stroke:#000000;stroke-width:0.175;stroke-linecap:butt;stroke-linejoin:miter;stroke-opacity:1"
       inkscape:connector-curvature="0" />
    <path
       id="path1910"
       d="m 99.543468,0.2108 c -17.313131,5.1828 -24.393729,24.397 -26.031585,40.813 -5.496887,29.3845 12.019969,61.1255 39.906587,71.937 9.9812,4.588 11.89843,20.4452 24.75,20.3125 7.83208,-0.3208 15.7729,-4.7118 18.875,-12.125 14.36685,9.2063 36.36902,11.5206 48.33574,-2.7873 13.77217,-14.314 10.55429,-40.3103 -5.33574,-51.744 10.82083,-4.4843 25.05664,-9.1355 27.32266,-22.4321 1.5943,-12.4079 -11.82266,-19.9355 -22.40067,-21.8384 -14.93335,-3.2908 -30.59308,-1.8182 -45.35949,1.3955 -5.92413,5.4855 -11.16541,-3.336 -16.96875,-4.5937 -6.57193,-2.2932 -13.69839,-3.2867 -20.5625,-1.7813 C 119.52474,7.5634 110.13329,-1.0535 99.543468,0.2108 Z"
       style="fill:none;fill-opacity:0.75;fill-rule:evenodd;stroke:#000000;stroke-width:0.175;stroke-linecap:butt;stroke-linejoin:miter;stroke-opacity:1"
       inkscape:connector-curvature="0" />
    <path
       id="path1913"
       d="m 97.699718,38.0233 c -4.585702,17.7014 -0.395921,40.2007 17.089402,49.2151 8.22185,4.2031 18.47132,6.1306 24.1606,14.0349 3.95889,-10.467 17.83424,-8.9924 25.57119,-3.876 6.99773,3.8006 16.33444,12.4866 23.86156,4.9891 7.31639,-7.2849 -1.50317,-17.8498 -8.74772,-21.0663 -11.11681,-5.697 -24.48728,-0.993 -32.37253,7.9532 -9.04451,6.3674 -23.91374,1.3981 -26,-9.6875 -0.0135,-6.3089 7.21589,-7.4949 11.99391,-5.9339 14.44193,1.7126 32.62215,0.347 40.14674,-14.1677 3.70019,-5.8961 8.34191,-11.5956 14.5156,-14.9922 -8.50129,0.477 -19.00869,-1.6596 -25.5,5.0313 -3.05893,8.1983 -4.74195,19.9169 -15.31338,21.5571 -9.79474,3.0192 -23.68418,0.0034 -26.96787,-10.7759 -0.93127,-7.3476 5.8757,-11.9592 11.84375,-14.375 -0.0215,4.9617 3.88616,14.3566 10,10.8125 4.92415,-11.5534 -11.49229,-21.6276 -20.90625,-14.5937 -6.39616,3.8926 -6.21249,12.3835 -3.9375,18.625 -10.6205,-0.8239 -19.233955,-10.2297 -18.501157,-20.9626 -0.579137,-2.052 0.502754,-7.6223 -0.936345,-1.7874 z"
       style="fill:none;fill-opacity:0.75;fill-rule:evenodd;stroke:#000000;stroke-width:0.175;stroke-linecap:butt;stroke-linejoin:miter;stroke-opacity:1"
       inkscape:connector-curvature="0" />
    <path
       id="path1920"
       d="m 125.82472,44.2108 c -10.2527,7.0883 -1.65993,2.4297 0,0 z m 10.53125,4.5312 c 4.85172,10.6682 0.92478,-3.9624 0,0 z m 39.3125,-0.0625 c -5.99428,-0.4187 -11.65182,3.6412 -12.04554,9.7775 0.0298,2.4492 -6.31538,10.556 -1.98571,7.4725 6.82206,-4.1288 9.68258,-11.849 15.125,-17.3125 -0.33279,0.019 -1.06196,0.0607 -1.09375,0.0625 z m -75.40625,8.5938 c 1.3678,11.2816 7.66516,22.7432 18.46875,27.3437 -2.97666,-4.8662 -0.6692,-11.3721 3.59375,-14.0937 -2.91367,-5.5236 -8.48435,-6.4922 -13.90625,-8.0938 -2.58567,0.0742 -8.39624,-7.927 -8.15625,-5.1562 z m 64,26.0312 c -2.76667,0.7464 -13.16146,5.4731 -9.36357,6.3856 10.87249,0.475 17.91553,12.2501 28.98857,11.0207 7.13959,-4.9862 -0.84244,-14.642 -7.13325,-16.0484 -3.87812,-1.725 -8.32657,-1.9523 -12.49175,-1.3579 z"
       style="fill:none;fill-opacity:0.75;fill-rule:evenodd;stroke:#000000;stroke-width:0.175;stroke-linecap:butt;stroke-linejoin:miter;stroke-opacity:1"
       inkscape:connector-curvature="0" />
  </g>
</svg>
