<?xml version="1.0" encoding="UTF-8" standalone="no"?>
<svg
   xmlns:dc="http://purl.org/dc/elements/1.1/"
   xmlns:cc="http://creativecommons.org/ns#"
   xmlns:rdf="http://www.w3.org/1999/02/22-rdf-syntax-ns#"
   xmlns:svg="http://www.w3.org/2000/svg"
   xmlns="http://www.w3.org/2000/svg"
   xmlns:sodipodi="http://sodipodi.sourceforge.net/DTD/sodipodi-0.dtd"
   xmlns:inkscape="http://www.inkscape.org/namespaces/inkscape"
   version="1.1"
   width="300"
   height="77"
   viewBox="0 0 300 77"
   id="svg2244"
   sodipodi:version="0.32"
   inkscape:version="1.0beta1 (a4ee55bc41, 2019-11-15)"
   sodipodi:docname="calligraphy-f01.svg">
  <defs
     id="defs3" />
  <sodipodi:namedview
     inkscape:lockguides="true"
     id="base"
     pagecolor="#ffffff"
     bordercolor="#666666"
     borderopacity="1.0"
     inkscape:pageopacity="0.0"
     inkscape:pageshadow="2"
     inkscape:zoom="2.8"
     inkscape:cx="144.42077"
     inkscape:cy="78.316635"
     inkscape:document-units="px"
     inkscape:current-layer="layer1"
     inkscape:document-rotation="0"
     showgrid="false"
     units="px"
     showguides="true"
     inkscape:guide-bbox="true"
     inkscape:window-width="1866"
     inkscape:window-height="1016"
     inkscape:window-x="54"
     inkscape:window-y="27"
     inkscape:window-maximized="1" />
  <metadata
     id="metadata4">
    <rdf:RDF>
      <cc:Work
         rdf:about="">
        <dc:format>image/svg+xml</dc:format>
        <dc:type
           rdf:resource="http://purl.org/dc/dcmitype/StillImage" />
        <dc:title />
      </cc:Work>
    </rdf:RDF>
  </metadata>
  <g
     inkscape:label="Layer 1"
     inkscape:groupmode="layer"
     id="layer1">
    <text
       xml:space="preserve"
       style="font-style:normal;font-weight:normal;line-height:0%;font-family:'Liberation Sans',Arial,sans-serif;text-align:center;text-anchor:middle;display:block;fill:#000000;fill-opacity:1;stroke:none;stroke-width:1pt;stroke-linecap:butt;stroke-linejoin:miter;stroke-opacity:1"
       x="150"
       y="6"
       id="text1944"><tspan
         style="font-size:6px;line-height:1.1;text-align:center;text-anchor:middle"
         sodipodi:role="line"
         id="tspan1945"
         x="150"
         y="6">width=1, growing....                       reaching 47, decreasing...                                  back to 0</tspan></text>
    <path
       inkscape:connector-curvature="0"
       style="display:block;fill:#000000;fill-opacity:1;fill-rule:nonzero;stroke:none;stroke-width:1pt;stroke-linecap:butt;stroke-linejoin:miter;stroke-opacity:1"
       id="path1924"
       d="M 0,35.70889 C 0.9316821,30.63057 2.4815131,20.9641 9.0103121,20.9904 17.850527,31.54588 4.9538712,64.75824 9.1550371,76.27466 13.235208,60.77966 15.658982,44.47363 21.716618,29.42326 c 1.700645,-4.2253 2.119742,-7.10233 6.588055,-4.82287 2.383466,13.63139 0.485123,27.84024 -0.40326,41.58629 -0.149057,2.30637 1.754484,8.15753 -0.204116,6.93055 -4.416905,-2.76699 -1.946088,-5.80686 -0.970117,-10.51444 1.185677,-5.91786 1.144114,-6.3737 2.90446,-12.32596 2.5641,-8.66999 7.108134,-28.55384 19.93266,-24.9735 2.610738,0.72887 2.734946,7.72981 2.786884,9.31039 0.103752,3.15733 -0.174998,7.63986 -0.322354,10.75658 -1.514758,4.67648 1.193506,25.39499 -8.709038,19.83002 -1.951761,-1.09684 7.697527,-31.49251 8.781434,-34.30896 25.586104,-40.89825 19.203459,22.8452 17.852315,33.49207 -0.810595,5.03962 0.818268,6.09677 -8.483096,3.44612 -0.08874,-0.02528 0.253937,-1.92052 0.829125,-5.253 1.61725,-9.3699 6.80653,-35.78576 16.389852,-39.71978 3.576669,0.22462 7.234777,-0.11758 10.730003,0.67387 3.728305,0.84422 2.233085,28.88689 1.924465,32.6416 -0.24607,2.99365 -0.625505,5.97768 -0.779315,8.97748 -0.06345,1.23752 1.327435,3.64034 0.09064,3.71631 C 79.623578,69.54368 79.901727,71.33216 81.211451,66.24692 84.714632,55.35423 95.22367,19.3691 109.6169,18.91743 c 11.54149,-0.36217 13.53974,-2.42485 18.48054,4.87806 3.11468,4.42883 3.93649,45.03774 1.62754,45.15832 -15.68354,0.81902 -13.98242,1.10151 -12.26167,-9.84352 0.35577,-1.72442 0.69023,-3.45338 1.06732,-5.17327 1.9785,-9.02387 5.09088,-20.49879 11.92226,-27.23703 1.00937,-0.99561 2.26349,-1.98714 3.78209,-1.9491 18.75263,0.46977 17.95618,-0.94205 19.94568,14.83498 0.44241,2.11846 0.34435,27.48334 -0.63147,27.54573 -4.70819,0.30101 -9.47651,0.40023 -14.15147,-0.23413 -1.99245,-0.27036 5.17305,-25.89422 5.61304,-27.28131 1.36024,-8.59293 19.70475,-40.43706 32.40483,-21.13855 6.69077,10.16701 3.21071,27.71859 1.99887,38.92102 -1.75143,10.52726 0.22573,15.65892 -14.68841,10.81444 -0.006,-0.0019 0.8377,-4.25997 1.5626,-6.8093 3.13557,-11.0272 6.88902,-23.07658 15.05695,-31.46231 26.22055,-13.78385 24.19311,31.32739 20.5359,44.47754 -3.3743,-0.13453 -7.02562,0.94212 -10.12289,-0.40358 -0.21261,-0.09237 0.81052,-4.99194 2.02757,-9.69117 2.68185,-10.35509 5.7492,-20.79269 10.24802,-30.52444 2.24485,-4.856 5.12372,-11.1716 9.26046,-14.83077 7.17981,-6.35092 14.29889,-1.95913 16.19272,5.33372 0.85683,5.40904 1.13091,6.22503 1.38438,11.96368 0.40288,9.12136 0.32083,18.4246 -0.16215,27.54223 -0.19934,3.76301 -0.58245,5.5428 -0.48515,9.07568 0.016,0.58094 0.7539,1.95901 0.21995,1.72956 -2.11581,-0.90919 -5.07323,-1.80126 -5.60249,-4.0425 -0.67299,-2.84995 12.44541,-27.7179 14.52714,-31.72241 2.05793,-3.55825 4.06642,-7.51552 6.81463,-10.65568 3.55975,-4.06743 12.73328,-6.46533 14.43015,0.71311 3.35932,14.21125 -0.30167,31.17237 -2.00002,45.4532 -0.48484,2.49102 -0.19066,3.54568 -5.29622,1.15225 -1.01912,-0.47775 1.34049,-10.51871 1.37229,-10.66958 1.7628,-8.36281 9.58193,-38.51537 18.92668,-41.05743 1.59011,0.3136 3.37493,0.1164 4.77035,0.94079 2.25511,1.33229 -1.16731,30.39223 -1.61669,34.35121 -0.211,1.85893 -0.46108,6.58676 -0.94295,6.75775 -3.28215,1.16462 -2.09025,-0.64996 -1.6869,-1.84582 4.08331,-13.81164 6.70663,-30.09627 16.15952,-41.5674 4.6063,-5.58976 6.27417,0.26376 6.42454,4.66429 2.18512,11.71015 -4.29016,25.93533 -2.3988,37.33032 0.0918,0.5528 0.51341,-1.00067 0.69402,-1.53112 1.23401,-3.62423 2.5456,-7.18309 3.95548,-10.74477 2.94722,-4.38113 9.38064,-25.42222 10.47902,-8.37809 v 0 c -1.09838,-17.04413 -7.5318,3.99696 -10.47902,8.37809 -1.40988,3.56168 -2.72147,7.12054 -3.95548,10.74477 -0.18061,0.53045 -0.60226,2.08392 -0.69402,1.53112 -1.81755,-10.95027 3.73889,-25.95319 1.73121,-37.33032 -0.26168,-2.0911 -0.5762,-6.87976 -1.21468,-7.073 -2.02643,-0.61328 -4.83484,4.71286 -5.34548,5.56341 -7.00547,11.66879 -10.20362,25.33009 -13.35353,38.4127 -0.20027,1.55865 0.16187,2.84646 -2.65245,1.84582 -1.0603,-0.377 0.11912,-2.24793 0.21706,-3.36897 0.93531,-10.70532 2.6897,-21.44555 2.1924,-32.22724 -0.16081,-3.48634 -2.78695,-5.5055 1.38816,-6.45354 -8.84105,2.40504 -16.80619,33.01653 -18.25909,41.05743 -0.46826,2.59157 -0.79593,10.54916 -1.03849,10.66958 -5.64039,2.80023 -4.81305,1.05277 -4.38387,-1.15225 1.56882,-13.19168 3.25089,-27.48813 1.88539,-40.738 -0.16395,-1.59086 -0.45619,-3.17497 -0.88677,-4.7152 -0.29393,-1.05144 -1.90361,-2.12451 -1.27479,-3.01697 0.83273,-1.18187 2.76766,-0.86172 4.19007,-1.12058 0.80915,-0.14725 -1.66118,0.31875 -2.33952,0.7838 -4.47982,3.07128 -6.61712,9.01577 -9.47006,13.29632 -2.15785,4.53609 -11.62905,29.99867 -13.52575,31.72241 -2.52831,2.29773 -6.09626,3.24528 -9.41836,4.0425 -1.74299,0.41827 -0.17793,-3.58316 -0.14804,-5.37538 0.24981,-14.97948 1.18062,-30.09979 -1.47658,-44.93577 -1.48075,-4.33651 -7.05688,-9.61356 3.51989,-6.8527 0.59955,0.15651 -1.2822,-0.67655 -5.22584,4.9178 -2.7089,3.84277 -4.14987,7.08048 -6.05602,11.43195 -4.30664,9.8315 -7.72051,20.0123 -9.91422,30.52444 -0.41257,1.977 -0.73829,3.97122 -1.08599,5.96065 -0.21691,1.24109 0.56471,3.26944 -0.60779,3.73052 -3.07514,1.2093 -6.60326,0.26905 -9.9049,0.40358 3.11241,-11.19121 1.28166,-26.437 -1.65466,-37.42863 -0.67549,-2.52858 -1.31566,-4.50211 -2.98097,-6.51884 -0.4798,-0.58106 -2.46855,-1.29733 -1.73138,-1.4536 15.53556,-3.29327 10.90849,-1.03007 7.52789,0.92353 -8.01263,8.22628 -11.68601,20.56624 -14.38936,31.46231 -0.33836,1.36378 -0.68336,2.72609 -0.99765,4.09562 -0.20665,0.90055 0.32264,2.45703 -0.56495,2.71368 -17.56345,5.07855 -11.79899,-0.30741 -10.68012,-10.81444 1.0985,-10.1547 1.84627,-20.68611 -0.008,-30.79847 -0.43494,-2.372 -1.13291,-6.01088 -2.65848,-8.12255 -0.55121,-0.76297 -3.10433,-1.61853 -2.17977,-1.79507 3.79692,-0.72498 7.8095,-0.77788 11.59655,-0.003 1.07067,0.21908 -1.93248,1.06891 -2.72866,1.81753 -5.89045,5.53851 -8.38478,13.91219 -11.38785,21.11906 -1.91406,6.03415 -3.62161,11.96747 -4.6856,18.21697 -0.36647,2.15254 -0.75972,5.11317 -0.90764,7.3809 -0.0365,0.56 0.53613,1.60679 -0.0198,1.68344 -4.58641,0.63239 -9.26802,0.54414 -13.88743,0.23413 -0.38939,-0.02613 0.15962,-0.76491 0.208,-1.15216 0.20553,-1.64511 0.41555,-4.59798 0.50491,-6.08055 0.40764,-6.76327 0.51885,-13.55632 -0.0814,-20.31302 -2.06088,-16.34306 -10.30762,-14.04939 8.42702,-14.83498 0.31563,-0.01323 -2.9073,-0.0051 -6.33819,4.6245 -6.38401,8.6146 -9.19145,19.4311 -11.43487,29.7349 -1.69531,10.78319 1.57215,10.72366 -14.10825,9.84352 -0.3764,-0.02113 0.21613,-0.72278 0.30279,-1.08967 0.68173,-2.88606 0.62679,-2.83373 0.95886,-6.20235 1.23509,-12.52924 2.24835,-25.77644 -1.8878,-37.8663 -2.98979,-5.31778 -9.35283,-6.15016 5.21901,-4.87806 1.00883,0.08807 -1.99183,0.44667 -2.90895,0.87607 -2.66453,1.24753 -4.66263,3.00544 -6.64857,5.15997 -10.50636,11.39822 -15.28484,26.84143 -19.84933,41.29345 -2.146625,5.17415 -0.59372,3.23918 -11.58541,2.61911 -0.216635,-0.01222 1.87713,-22.30474 2.005034,-24.41958 0.305075,-5.04428 0.527472,-10.54099 -0.195288,-15.57057 -0.162055,-1.12772 -0.425284,-2.2509 -0.832236,-3.31504 -0.281517,-0.73614 -1.938184,-1.72415 -1.211901,-2.0302 2.352491,-0.99134 5.085865,-0.44925 7.628797,-0.67387 -9.309292,3.82153 -14.088974,26.21304 -16.251626,35.0559 -0.641516,2.6231 -1.841681,9.88267 -1.96874,9.91688 -10.391638,2.79857 -7.844927,1.47632 -7.205337,-3.44612 1.345136,-10.59953 3.083998,-21.33469 2.767954,-32.0562 -0.0802,-2.72071 -0.447475,-5.85909 -1.277435,-8.4949 -0.273673,-0.86914 -1.78504,-1.88293 -1.112029,-2.49723 1.267718,-1.15711 3.354681,-0.72826 5.034094,-1.08267 0.65969,-0.13921 -1.385832,0.10905 -1.974866,0.43709 -3.754463,2.09091 -5.327183,6.71821 -7.270582,10.20184 -4.062326,9.15416 -6.832779,18.64354 -8.692462,28.48925 -0.363077,1.92224 0.974091,4.90776 -0.756565,5.81971 -1.625573,0.85657 -3.622355,0.72816 -5.4595,0.76138 -0.238307,0.0043 0.198368,-0.43625 0.256894,-0.6673 0.434343,-1.71472 0.823106,-3.44192 1.1556,-5.17927 0.932719,-4.87363 1.454833,-9.82655 2.074557,-14.74483 0.542875,-5.06572 1.019641,-10.01237 0.284479,-15.09397 -0.155436,-1.07441 -0.29634,-2.17579 -0.715476,-3.17721 -0.290371,-0.69376 -1.730586,-1.13802 -1.36594,-1.79579 0.411656,-0.74256 2.386779,-1.13942 2.529105,-0.30239 0.149686,0.88031 -1.676409,0.68807 -2.367343,1.25372 -0.939927,0.76949 -1.726077,1.72155 -2.454413,2.69372 -7.292294,9.73359 -9.768431,22.18837 -12.867151,33.65441 -1.078096,5.20018 -0.22252,8.27029 -5.372015,10.51444 -2.124181,0.92573 0.306265,-4.62503 0.537912,-6.93055 1.382712,-13.76178 2.926389,-27.78945 1.40465,-41.58629 2.349385,-3.50267 -1.548704,0.92918 -1.689847,1.17194 -1.820236,3.1308 -2.553896,5.0796 -3.801901,8.61661 -3.587729,10.1681 -6.045982,20.6049 -8.593922,31.06472 -0.761517,3.12619 -0.984237,9.09356 -4.0625769,10.821 C 4.2862782,64.75824 17.182934,31.54588 8.3427191,20.9904 2.9449911,23.08914 1.1871211,30.43274 0.333796,35.70889 Z" />
  </g>
</svg>
